<?xml version="1.0" encoding="utf-8"?>
<!-- Generator: Adobe Illustrator 21.0.2, SVG Export Plug-In . SVG Version: 6.00 Build 0)  -->
<svg version="1.1" id="Layer_1" xmlns="http://www.w3.org/2000/svg" xmlns:xlink="http://www.w3.org/1999/xlink" x="0px" y="0px"
	 viewBox="206.6 110.6 428.6 255" style="enable-background:new 206.6 110.6 428.6 255;" xml:space="preserve">
<path d="M448,247.9c-15,15-39.2,15-54.2,0c-43.1-43.1-85.5-85.6-128-128.6c-12.4-13.1-28.7-10.5-43.1,1.9l-5.9,6.5
	c-15.7,15.7-12.4,37.2,3.3,52.9l173.7,173.7c15,15,39.2,15,54.2,0l173.7-173.7c15.7-15.7,18.9-37.2,3.3-52.9l-6.5-6.5
	c-13.7-12.4-30.1-15-42.5-1.9C533.6,162.4,490.5,204.8,448,247.9z"/>
</svg>
