<?xml version="1.0" encoding="utf-8"?>
<!-- Generator: Adobe Illustrator 17.0.0, SVG Export Plug-In . SVG Version: 6.00 Build 0)  -->
<!DOCTYPE svg PUBLIC "-//W3C//DTD SVG 1.1//EN" "http://www.w3.org/Graphics/SVG/1.1/DTD/svg11.dtd">
<svg version="1.1" id="Layer_1" xmlns="http://www.w3.org/2000/svg" xmlns:xlink="http://www.w3.org/1999/xlink" x="0px" y="0px"
	 width="428.602px" height="254.997px" viewBox="206.645 110.613 428.602 254.997"
	 enable-background="new 206.645 110.613 428.602 254.997" xml:space="preserve">
<path d="M393.849,228.319c15.025-15.015,39.179-15.015,54.218,0c43.07,43.113,85.52,85.554,127.98,128.623
	c12.387,13.082,28.716,10.472,43.094-1.948l5.867-6.529c15.658-15.668,12.396-37.226-3.262-52.894L448.067,121.893
	c-15.039-15.039-39.193-15.039-54.218,0L220.156,295.576c-15.658,15.668-18.939,37.226-3.272,52.894l6.52,6.529
	c13.734,12.42,30.074,15.025,42.47,1.948C308.315,313.873,351.418,271.432,393.849,228.319z"/>
</svg>
