<?xml version="1.0" encoding="utf-8"?>
<!-- Generator: Adobe Illustrator 21.0.2, SVG Export Plug-In . SVG Version: 6.00 Build 0)  -->
<svg version="1.1" id="Layer_1" xmlns="http://www.w3.org/2000/svg" xmlns:xlink="http://www.w3.org/1999/xlink" x="0px" y="0px"
	 viewBox="235.2 142.9 304.8 190.5" style="enable-background:new 235.2 142.9 304.8 190.5;" xml:space="preserve">
<path d="M235.2,238.1c0.1,3.4,1.5,7.3,3.9,9.8l76.2,81c5.2,4.6,15.1,6.6,20.8,1.2c5.7-5.3,5.5-15.5-0.1-20.8l-53.6-56.9h243.3
	c7.9,0,14.3-6.4,14.3-14.3c0-7.9-6.4-14.3-14.3-14.3H282.4L336,167c4.9-4.9,5.8-15.5,0.1-20.8c-5.6-5.3-15.9-3.6-20.8,1.2l-76.2,81
	C236.5,231.1,235.2,234.3,235.2,238.1L235.2,238.1z"/>
</svg>
