<?xml version="1.0" encoding="utf-8"?>
<!-- Generator: Adobe Illustrator 17.0.0, SVG Export Plug-In . SVG Version: 6.00 Build 0)  -->
<!DOCTYPE svg PUBLIC "-//W3C//DTD SVG 1.1//EN" "http://www.w3.org/Graphics/SVG/1.1/DTD/svg11.dtd">
<svg version="1.1" id="Layer_1" xmlns="http://www.w3.org/2000/svg" xmlns:xlink="http://www.w3.org/1999/xlink" x="0px" y="0px"
	 width="654.99px" height="617.105px" viewBox="93.45 777.182 654.99 617.105"
	 enable-background="new 93.45 777.182 654.99 617.105" xml:space="preserve">
<g>
	<path d="M500.083,1129.934l-79.138,79.98l-79.138-79.138c-136.386,24.415-239.097,111.971-248.358,218.05
		c90.924,28.624,204.579,45.462,327.495,45.462s236.571-16.838,327.495-45.462C739.179,1241.905,636.469,1155.191,500.083,1129.934z
		"/>
	<circle cx="420.945" cy="936.299" r="159.117"/>
</g>
</svg>
