<?xml version="1.0" encoding="utf-8"?>
<!-- Generator: Adobe Illustrator 21.0.2, SVG Export Plug-In . SVG Version: 6.00 Build 0)  -->
<svg version="1.1" id="Layer_1" xmlns="http://www.w3.org/2000/svg" xmlns:xlink="http://www.w3.org/1999/xlink" x="0px" y="0px"
	 viewBox="211.4 114.3 419.1 247.6" style="enable-background:new 211.4 114.3 419.1 247.6;" xml:space="preserve">
<g transform="translate(0,-952.36218)">
	<path d="M230.5,1066.7c-1.4,0-2.7,0.2-4,0.4l184.8,154c4.6,3.8,14.8,3.8,19.3,0l184.8-154c-1.3-0.3-2.6-0.4-4-0.4H230.5
		L230.5,1066.7z M212.3,1080.3c-0.5,1.7-0.9,3.5-0.9,5.4v209.5c0,1.9,0.4,3.7,0.9,5.4l136.9-106.3L212.3,1080.3z M629.6,1080.3
		l-136.9,114l136.9,106.3c0.5-1.7,0.9-3.5,0.9-5.4v-209.5C630.5,1083.8,630.1,1082.1,629.6,1080.3z M364.1,1206.8l-137.5,107
		c1.2,0.3,2.6,0.4,3.9,0.4h381c1.3,0,2.6-0.2,3.9-0.4l-137.5-107l-35,29c-12.6,10.5-31.2,10.5-43.8,0L364.1,1206.8L364.1,1206.8z"/>
</g>
</svg>
