<?xml version="1.0" encoding="utf-8"?>
<!-- Generator: Adobe Illustrator 21.0.2, SVG Export Plug-In . SVG Version: 6.00 Build 0)  -->
<svg version="1.1" id="Layer_1" xmlns="http://www.w3.org/2000/svg" xmlns:xlink="http://www.w3.org/1999/xlink" x="0px" y="0px"
	 viewBox="0 0 400 475.3" style="enable-background:new 0 0 400 475.3;" xml:space="preserve">
<path d="M257.4,353.1c8.7-24.6,26.7-41,51.1-48.6c10.9-3.4,88.3,61.3,91.5,96.4c-26.8,46.8-69.4,90.4-128.1,68.7
	C172,432.8,22.4,205.2,1.5,112.8c-13-57.3,59.1-112.7,110-112.7c26.8,29.5,51.2,69.5,58.7,112.7c-15.9,21.3-37.9,31.9-63.8,35.7
	L257.4,353.1z"/>
</svg>
