<?xml version="1.0" encoding="utf-8"?>
<!-- Generator: Adobe Illustrator 21.0.2, SVG Export Plug-In . SVG Version: 6.00 Build 0)  -->
<svg version="1.1" id="Layer_1" xmlns="http://www.w3.org/2000/svg" xmlns:xlink="http://www.w3.org/1999/xlink" x="0px" y="0px"
	 viewBox="0 0 316.7 305.5" style="enable-background:new 0 0 316.7 305.5;" xml:space="preserve">
<style type="text/css">
	.st0{fill:#1B0000;}
</style>
<path class="st0" d="M252.5,305.5c-1,0-1.9-0.2-2.8-0.7L158.5,257c-0.1,0-0.2,0-0.3,0L67,304.8c-2,1.1-4.5,0.9-6.3-0.4
	c-1.8-1.3-2.8-3.6-2.4-5.8L75,195.8c0-0.1,0-0.2-0.1-0.3L1.8,122.3c-1.6-1.6-2.2-4-1.5-6.1s2.6-3.7,4.8-4.1l101.6-15.5
	c0-0.1,0-0.1,0.1-0.2l46.2-93.1c1-2,3.1-3.3,5.4-3.3s4.4,1.3,5.4,3.3l46.2,93.1c0,0.1,0.1,0.1,0.1,0.2l101.7,15.5
	c2.2,0.3,4.1,1.9,4.8,4.1s0.1,4.5-1.5,6.1l-73.1,73.2c-0.1,0.1-0.1,0.3-0.1,0.4l16.7,102.6c0.4,2.2-0.6,4.5-2.4,5.8
	C255,305.1,253.7,305.5,252.5,305.5z M18.6,122.2l64.7,64.8c2.8,2.8,4.1,6.7,3.5,10.6l-14.8,90.9l80.7-42.3c0,0,0.1,0,0.1-0.1
	c3.5-1.7,7.6-1.7,11.1,0c0,0,0.1,0,0.1,0.1l80.7,42.3l-14.8-90.8c-0.6-4,0.7-7.9,3.5-10.7l64.7-64.8L208,108.5
	c-3.9-0.6-7.3-3.2-8.9-6.8l-40.8-82.2l-40.8,82.2c-1.6,3.6-5,6.1-8.9,6.8L18.6,122.2z M210,96.8C210,96.8,210,96.8,210,96.8
	C210,96.8,210,96.8,210,96.8z M106.6,96.8C106.6,96.8,106.6,96.8,106.6,96.8C106.6,96.8,106.6,96.8,106.6,96.8z"/>
</svg>
